{
    "name": "Logic",
    "rootNamespace": "",
    "references": [
        "GUID:9c59a049deefdf64bbbaa730a340bb3f",
        "GUID:18e5109d897e1b244ab2dfeaf5482c7b"
    ],
    "includePlatforms": [],
    "excludePlatforms": [],
    "allowUnsafeCode": false,
    "overrideReferences": false,
    "precompiledReferences": [],
    "autoReferenced": true,
    "defineConstraints": [],
    "versionDefines": [],
    "noEngineReferences": false
}