%YAML 1.1
%TAG !u! tag:unity3d.com,2011:
--- !u!114 &11400000
MonoBehaviour:
  m_ObjectHideFlags: 0
  m_CorrespondingSourceObject: {fileID: 0}
  m_PrefabInstance: {fileID: 0}
  m_PrefabAsset: {fileID: 0}
  m_GameObject: {fileID: 0}
  m_Enabled: 1
  m_EditorHideFlags: 0
  m_Script: {fileID: 11500000, guid: 77deaa761d293e54d8b88ed6f787d0de, type: 3}
  m_Name: ColorPicker
  m_EditorClassIdentifier: 
  _guiPrefab: {fileID: 601620322710443666, guid: 2f101850777095849972aedd994ca34d, type: 3}
