%YAML 1.1
%TAG !u! tag:unity3d.com,2011:
--- !u!114 &11400000
MonoBehaviour:
  m_ObjectHideFlags: 0
  m_CorrespondingSourceObject: {fileID: 0}
  m_PrefabInstance: {fileID: 0}
  m_PrefabAsset: {fileID: 0}
  m_GameObject: {fileID: 0}
  m_Enabled: 1
  m_EditorHideFlags: 0
  m_Script: {fileID: 11500000, guid: 77deaa761d293e54d8b88ed6f787d0de, type: 3}
  m_Name: Header
  m_EditorClassIdentifier: 
  _guiPrefab: {fileID: 878248806764699449, guid: 14e0be653701ecd41ae4d3f681381999, type: 3}
